{
    "name": "Admin",
    "alias": "admin",
    "description": "The TodoKZ Admin Module.",
    "priority": 10,
    "providers": [
        "Maatwebsite\\Sidebar\\SidebarServiceProvider",
        "Modules\\Admin\\Providers\\AdminServiceProvider",
        "Modules\\Admin\\Providers\\SidebarServiceProvider"
    ]
}
