{
    "name": "Attribute",
    "alias": "attribute",
    "description": "The TodoKZ Attribute Module.",
    "priority": 100,
    "providers": [
        "Modules\\Attribute\\Providers\\AttributeServiceProvider",
        "Modules\\Attribute\\Providers\\EventServiceProvider"
    ]
}
